<?xml version="1.0" encoding="UTF-8" standalone="no"?>
<!-- Created with Inkscape (http://www.inkscape.org/) -->

<svg
   xmlns:dc="http://purl.org/dc/elements/1.1/"
   xmlns:cc="http://creativecommons.org/ns#"
   xmlns:rdf="http://www.w3.org/1999/02/22-rdf-syntax-ns#"
   xmlns:svg="http://www.w3.org/2000/svg"
   xmlns="http://www.w3.org/2000/svg"
   xmlns:sodipodi="http://sodipodi.sourceforge.net/DTD/sodipodi-0.dtd"
   xmlns:inkscape="http://www.inkscape.org/namespaces/inkscape"
   width="426"
   height="230"
   id="svg4334"
   version="1.1"
   inkscape:version="0.48.4 r9939"
   sodipodi:docname="optics.pdf">
  <defs
     id="defs4336">
    <clipPath
       clipPathUnits="userSpaceOnUse"
       id="clipPath50">
      <path
         inkscape:connector-curvature="0"
         d="m 0,29 186,0 0,40 L 0,69 0,29 z"
         id="path52" />
    </clipPath>
    <clipPath
       clipPathUnits="userSpaceOnUse"
       id="clipPath66">
      <path
         inkscape:connector-curvature="0"
         d="m 271,0 10,0 0,35 -10,0 0,-35 z"
         id="path68" />
    </clipPath>
    <clipPath
       clipPathUnits="userSpaceOnUse"
       id="clipPath102">
      <path
         inkscape:connector-curvature="0"
         d="m 327,110 59,0 0,11 -59,0 0,-11 z"
         id="path104" />
    </clipPath>
    <clipPath
       clipPathUnits="userSpaceOnUse"
       id="clipPath148">
      <path
         inkscape:connector-curvature="0"
         d="m 308,251 13,0 0,7 -13,0 0,-7 z"
         id="path150" />
    </clipPath>
  </defs>
  <sodipodi:namedview
     id="base"
     pagecolor="#ffffff"
     bordercolor="#666666"
     borderopacity="1.0"
     inkscape:pageopacity="0.0"
     inkscape:pageshadow="2"
     inkscape:zoom="1.8055329"
     inkscape:cx="182.19466"
     inkscape:cy="204.22669"
     inkscape:document-units="px"
     inkscape:current-layer="layer1"
     showgrid="false"
     inkscape:window-width="1671"
     inkscape:window-height="1120"
     inkscape:window-x="136"
     inkscape:window-y="0"
     inkscape:window-maximized="0" />
  <metadata
     id="metadata4339">
    <rdf:RDF>
      <cc:Work
         rdf:about="">
        <dc:format>image/svg+xml</dc:format>
        <dc:type
           rdf:resource="http://purl.org/dc/dcmitype/StillImage" />
        <dc:title></dc:title>
      </cc:Work>
    </rdf:RDF>
  </metadata>
  <g
     inkscape:label="Layer 1"
     inkscape:groupmode="layer"
     id="layer1"
     transform="translate(0,-822.36218)">
    <path
       id="path14"
       style="fill:none;stroke:#1f77b4;stroke-width:2.5;stroke-linecap:butt;stroke-linejoin:miter;stroke-miterlimit:10;stroke-opacity:1;stroke-dasharray:none"
       d="m 285.91842,928.50822 0,-13.68266"
       inkscape:connector-curvature="0" />
    <path
       id="path16"
       style="fill:#ffffff;fill-opacity:1;fill-rule:nonzero;stroke:#231f20;stroke-width:1.25;stroke-linecap:butt;stroke-linejoin:miter;stroke-miterlimit:10;stroke-opacity:1;stroke-dasharray:none"
       d="m 278.6496,950.75085 0,-13.43297 21.50144,-27.65611 21.50144,0 -21.50144,27.65611 0,13.43297"
       inkscape:connector-curvature="0" />
    <path
       id="path18"
       style="fill:#ffffff;fill-opacity:1;fill-rule:nonzero;stroke:#231f20;stroke-width:1.25;stroke-linecap:butt;stroke-linejoin:miter;stroke-miterlimit:10;stroke-opacity:1;stroke-dasharray:none"
       d="m 263.43874,950.75085 54.12696,0 0,19.55682 -54.12696,0 0,-19.55682 z"
       inkscape:connector-curvature="0" />
    <path
       id="path20"
       style="fill:none;stroke:#1f77b4;stroke-width:2.5;stroke-linecap:butt;stroke-linejoin:miter;stroke-miterlimit:10;stroke-opacity:1;stroke-dasharray:none"
       d="m 249.54589,852.57166 66.81321,0 0,63.89905 -30.36957,12.15525 0,64.99186 -130.0931,0"
       inkscape:connector-curvature="0"
       sodipodi:nodetypes="cccccc" />
    <path
       id="path22"
       style="fill:none;stroke:#2ca02c;stroke-width:2.5;stroke-linecap:butt;stroke-linejoin:miter;stroke-miterlimit:10;stroke-opacity:1;stroke-dasharray:none"
       d="m 249.54589,852.57166 3.1607,0"
       inkscape:connector-curvature="0" />
    <path
       id="path24"
       style="fill:none;stroke:#2ca02c;stroke-width:2.5;stroke-linecap:butt;stroke-linejoin:miter;stroke-miterlimit:10;stroke-opacity:1;stroke-dasharray:10.63250006, 10.63250006;stroke-dashoffset:0"
       d="m 259.42939,852.57166 50.40761,0"
       inkscape:connector-curvature="0" />
    <path
       id="path26"
       style="fill:none;stroke:#00a650;stroke-width:2.5;stroke-linecap:butt;stroke-linejoin:miter;stroke-miterlimit:10;stroke-opacity:1;stroke-dasharray:none"
       d="m 313.1984,852.57166 3.1607,0 0,3.1607"
       inkscape:connector-curvature="0" />
    <path
       id="path28"
       style="fill:none;stroke:#2ca02c;stroke-width:2.5;stroke-linecap:butt;stroke-linejoin:miter;stroke-miterlimit:10;stroke-opacity:1;stroke-dasharray:10.12000006, 10.12000006;stroke-dashoffset:0"
       d="m 316.3591,862.13119 0,47.98098"
       inkscape:connector-curvature="0" />
    <path
       id="path30"
       style="fill:none;stroke:#2ca02c;stroke-width:2.5;stroke-linecap:butt;stroke-linejoin:miter;stroke-miterlimit:10;stroke-opacity:1;stroke-dasharray:none"
       d="m 316.3591,913.31001 0,3.1607 -2.9355,1.17261"
       inkscape:connector-curvature="0" />
    <path
       id="path32"
       style="fill:none;stroke:#2ca02c;stroke-width:2.5;stroke-linecap:butt;stroke-linejoin:miter;stroke-miterlimit:10;stroke-opacity:1;stroke-dasharray:8.34875005, 8.34875005;stroke-dashoffset:0"
       d="m 308.52452,919.60691 -17.14916,6.86424"
       inkscape:connector-curvature="0" />
    <path
       id="path34"
       style="fill:none;stroke:#2ca02c;stroke-width:2.5;stroke-linecap:butt;stroke-linejoin:miter;stroke-miterlimit:10;stroke-opacity:1;stroke-dasharray:none"
       d="m 288.92503,927.45334 -2.9355,1.17262 0,3.1607"
       inkscape:connector-curvature="0" />
    <path
       id="path36"
       style="fill:none;stroke:#2ca02c;stroke-width:2.5;stroke-linecap:butt;stroke-linejoin:miter;stroke-miterlimit:10;stroke-opacity:1;stroke-dasharray:10.31250005, 10.31250005;stroke-dashoffset:0"
       d="m 285.98953,938.3056 0,48.89205"
       inkscape:connector-curvature="0" />
    <path
       id="path38"
       style="fill:none;stroke:#00a650;stroke-width:2.5;stroke-linecap:butt;stroke-linejoin:miter;stroke-miterlimit:10;stroke-opacity:1;stroke-dasharray:none"
       d="m 285.98953,990.45712 0,3.1607"
       inkscape:connector-curvature="0" />
    <path
       id="path40"
       style="fill:#ffffff;fill-opacity:1;fill-rule:nonzero;stroke:none"
       d="m 14.203995,985.15742 145.833825,0 0,29.39998 -145.833825,0 0,-29.39998 z"
       inkscape:connector-curvature="0" />
    <g
       transform="matrix(0.79017454,0,0,-0.79017454,13.867381,1038.5558)"
       id="g44">
      <g
         id="g46">
        <g
           clip-path="url(#clipPath50)"
           id="g48">
          <g
             id="g54">
            <path
               id="path56"
               style="fill:none;stroke:#231f20;stroke-width:1.34147573;stroke-linecap:butt;stroke-linejoin:miter;stroke-miterlimit:10;stroke-opacity:1;stroke-dasharray:none"
               d="m 0.426,67.578 184.559,0 0,-37.207 -184.559,0 0,37.207 z"
               inkscape:connector-curvature="0" />
          </g>
        </g>
      </g>
    </g>
    <path
       id="path58"
       style="fill:none;stroke:#231f20;stroke-width:1.25;stroke-linecap:butt;stroke-linejoin:miter;stroke-miterlimit:10;stroke-opacity:1;stroke-dasharray:none"
       d="m 294.44677,886.48437 43.82387,0 0,11.12724 -43.82387,0 0,-11.12724 z"
       inkscape:connector-curvature="0" />
    <g
       transform="matrix(0.79017454,0,0,-0.79017454,67.867381,1038.5558)"
       id="g60">
      <g
         id="g62">
        <g
           clip-path="url(#clipPath66)"
           id="g64">
          <g
             id="g70">
            <path
               id="path72"
               style="fill:none;stroke:#231f20;stroke-width:1.11842382;stroke-linecap:butt;stroke-linejoin:miter;stroke-miterlimit:10;stroke-opacity:1;stroke-dasharray:none"
               d="m 272.297,34.371 7.5,0 0,-33.086 -7.5,0 0,33.086 z"
               inkscape:connector-curvature="0" />
          </g>
        </g>
      </g>
    </g>
    <path
       id="path74"
       style="fill:none;stroke:#231f20;stroke-width:0.88375002;stroke-linecap:butt;stroke-linejoin:miter;stroke-miterlimit:10;stroke-opacity:1;stroke-dasharray:none"
       d="m 352.61705,980.61707 -10.02811,3.74701 -9.10597,-24.36266 10.03206,-3.75017 9.10202,24.36582 z"
       inkscape:connector-curvature="0" />
    <path
       id="path76"
       style="fill:none;stroke:#231f20;stroke-width:0.88375002;stroke-linecap:butt;stroke-linejoin:miter;stroke-miterlimit:10;stroke-opacity:1;stroke-dasharray:none"
       d="m 339.35081,975.69982 -3.78731,1.41362 -2.62654,-7.03097 3.78415,-1.41362 2.6297,7.03097 z"
       inkscape:connector-curvature="0" />
    <path
       id="path78"
       style="fill:none;stroke:#2ca02c;stroke-width:2.5;stroke-linecap:butt;stroke-linejoin:miter;stroke-miterlimit:10;stroke-opacity:1;stroke-dasharray:none"
       d="m 285.98953,1011.3967 -0.0308,-17.08748"
       inkscape:connector-curvature="0" />
    <path
       id="path80"
       style="fill:none;stroke:#1f77b4;stroke-width:2.5;stroke-linecap:butt;stroke-linejoin:miter;stroke-miterlimit:10;stroke-opacity:1;stroke-dasharray:none"
       d="m 285.95871,993.81536 31.60699,0"
       inkscape:connector-curvature="0" />
    <path
       id="path82"
       style="fill:#231f20;fill-opacity:1;fill-rule:nonzero;stroke:#231f20;stroke-width:1.07000005;stroke-linecap:butt;stroke-linejoin:miter;stroke-miterlimit:10;stroke-opacity:1;stroke-dasharray:none"
       d="m 317.5657,989.28134 4.08678,0 0,9.06886 -4.08678,0 0,-9.06886 z"
       inkscape:connector-curvature="0" />
    <path
       id="path84"
       style="fill:#ffffff;fill-opacity:1;fill-rule:nonzero;stroke:#231f20;stroke-width:1.25;stroke-linecap:butt;stroke-linejoin:miter;stroke-miterlimit:10;stroke-opacity:1;stroke-dasharray:none"
       d="m 294.61982,987.11152 -15.36495,15.36498 -1.95726,-1.9541 15.36495,-15.36814 1.95726,1.95726 z"
       inkscape:connector-curvature="0" />
    <path
       id="path122"
       style="fill:#ffffff;fill-opacity:1;fill-rule:nonzero;stroke:#231f20;stroke-width:0.90874994;stroke-linecap:butt;stroke-linejoin:miter;stroke-miterlimit:10;stroke-opacity:1;stroke-dasharray:none"
       d="m 160.03703,989.4536 2.18878,0 0,12.2137 -2.18878,0 0,-12.2137 z"
       inkscape:connector-curvature="0" />
    <text
       style="font-size:12.99999905px;font-style:normal;font-variant:normal;font-weight:normal;font-stretch:normal;font-family:TeX Gyre Pagella;-inkscape-font-specification:TeX Gyre Pagella"
       id="text124"
       x="72.245667"
       y="902.0274">
      <tspan
         y="902.0274"
         x="72.245667"
         id="tspan126"
         sodipodi:role="line"
         style="font-size:12.99999905px;font-style:normal;font-variant:normal;font-weight:normal;font-stretch:normal;writing-mode:lr-tb;fill:#231f20;fill-opacity:1;fill-rule:nonzero;stroke:none;font-family:TeX Gyre Pagella;-inkscape-font-specification:TeX Gyre Pagella" />
    </text>
    <path
       id="path128"
       style="fill:none;stroke:#1f77b4;stroke-width:1.25;stroke-linecap:butt;stroke-linejoin:miter;stroke-miterlimit:10;stroke-opacity:1;stroke-dasharray:none"
       d="m 46.795534,899.14616 15.803491,0"
       inkscape:connector-curvature="0" />
    <path
       id="path136"
       style="fill:none;stroke:#2ca02c;stroke-width:1.25;stroke-linecap:butt;stroke-linejoin:miter;stroke-miterlimit:10;stroke-opacity:1;stroke-dasharray:none"
       d="m 45.971382,929.5888 15.803491,0"
       inkscape:connector-curvature="0" />
    <path
       id="path138"
       style="fill:none;stroke:#1f77b4;stroke-width:2.5;stroke-linecap:butt;stroke-linejoin:miter;stroke-miterlimit:10;stroke-opacity:1;stroke-dasharray:none"
       d="m 316.3591,852.79686 0,-13.68266"
       inkscape:connector-curvature="0" />
    <path
       id="path140"
       style="fill:#231f20;fill-opacity:1;fill-rule:nonzero;stroke:none"
       d="m 311.82429,835.03058 9.06883,0 0,4.08362 -9.06883,0 0,-4.08362 z"
       inkscape:connector-curvature="0" />
    <g
       transform="matrix(0.79017454,0,0,-0.79017454,67.867381,1038.5558)"
       id="g142">
      <g
         id="g144">
        <g
           clip-path="url(#clipPath148)"
           id="g146">
          <g
             id="g152">
            <path
               id="path154"
               style="fill:none;stroke:#231f20;stroke-width:1.35413122;stroke-linecap:butt;stroke-linejoin:miter;stroke-miterlimit:10;stroke-opacity:1;stroke-dasharray:none"
               d="m 308.738,257.57 11.477,0 0,-5.168 -11.477,0 0,5.168 z"
               inkscape:connector-curvature="0" />
          </g>
        </g>
      </g>
    </g>
    <path
       id="path156"
       style="fill:#ffffff;fill-opacity:1;fill-rule:nonzero;stroke:#231f20;stroke-width:1.25;stroke-linecap:butt;stroke-linejoin:miter;stroke-miterlimit:10;stroke-opacity:1;stroke-dasharray:none"
       d="m 309.65447,843.91372 15.36573,15.36178 -1.95726,1.95726 -15.36494,-15.36494 1.95647,-1.9541 z"
       inkscape:connector-curvature="0" />
    <path
       id="path158"
       style="fill:#231f20;fill-opacity:1;fill-rule:nonzero;stroke:#231f20;stroke-width:1.07000005;stroke-linecap:butt;stroke-linejoin:miter;stroke-miterlimit:10;stroke-opacity:1;stroke-dasharray:none"
       d="m 281.38439,910.73878 9.06884,0 0,4.08678 -9.06884,0 0,-4.08678 z"
       inkscape:connector-curvature="0" />
    <text
       sodipodi:linespacing="125%"
       id="text6897"
       y="903.51416"
       x="65.9394"
       style="font-size:20px;font-style:normal;font-variant:normal;font-weight:normal;font-stretch:normal;line-height:125%;letter-spacing:0px;word-spacing:0px;fill:#000000;fill-opacity:1;stroke:none;font-family:TeX Gyre Pagella;-inkscape-font-specification:TeX Gyre Pagella"
       xml:space="preserve"><tspan
         style="font-size:12.99999905px"
         y="903.51416"
         x="65.9394"
         id="tspan6899"
         sodipodi:role="line">UV Laser</tspan></text>
    <text
       sodipodi:linespacing="125%"
       id="text6903"
       y="926.0528"
       x="66.493248"
       style="font-size:12.99999905px;font-style:normal;font-variant:normal;font-weight:normal;font-stretch:normal;line-height:125%;letter-spacing:0px;word-spacing:0px;fill:#000000;fill-opacity:1;stroke:none;font-family:TeX Gyre Pagella;-inkscape-font-specification:TeX Gyre Pagella"
       xml:space="preserve"><tspan
         y="926.0528"
         x="66.493248"
         id="tspan6905"
         sodipodi:role="line">Alignment</tspan><tspan
         id="tspan6907"
         y="942.3028"
         x="66.493248"
         sodipodi:role="line">Laser</tspan></text>
    <flowRoot
       xml:space="preserve"
       id="flowRoot6889"
       style="fill:black;stroke:none;stroke-opacity:1;stroke-width:1px;stroke-linejoin:miter;stroke-linecap:butt;fill-opacity:1;font-family:TeX Gyre Pagella;font-style:normal;font-weight:normal;font-size:20px;line-height:125%;letter-spacing:0px;word-spacing:0px;-inkscape-font-specification:TeX Gyre Pagella;font-stretch:normal;font-variant:normal"><flowRegion
         id="flowRegion6891"><rect
           id="rect6893"
           width="367.35202"
           height="299.20782"
           x="-9.7908325"
           y="-53.5425" /></flowRegion><flowPara
         id="flowPara6895"></flowPara></flowRoot>    <text
       xml:space="preserve"
       style="font-size:13px;font-style:normal;font-variant:normal;font-weight:normal;font-stretch:normal;line-height:125%;letter-spacing:0px;word-spacing:0px;fill:#000000;fill-opacity:1;stroke:none;font-family:TeX Gyre Pagella;-inkscape-font-specification:TeX Gyre Pagella"
       x="289.97296"
       y="868.48297"
       id="text6961"
       sodipodi:linespacing="125%"><tspan
         sodipodi:role="line"
         id="tspan6963"
         x="289.97296"
         y="868.48297">M2</tspan></text>
    <text
       xml:space="preserve"
       style="font-size:13px;font-style:normal;font-variant:normal;font-weight:normal;font-stretch:normal;line-height:125%;letter-spacing:0px;word-spacing:0px;fill:#000000;fill-opacity:1;stroke:none;font-family:TeX Gyre Pagella;-inkscape-font-specification:TeX Gyre Pagella"
       x="329.29654"
       y="836.91333"
       id="text6965"
       sodipodi:linespacing="125%"><tspan
         sodipodi:role="line"
         id="tspan6967"
         x="329.29654"
         y="836.91333">BD3</tspan></text>
    <text
       xml:space="preserve"
       style="font-size:13px;font-style:normal;font-variant:normal;font-weight:normal;font-stretch:normal;line-height:125%;letter-spacing:0px;word-spacing:0px;fill:#000000;fill-opacity:1;stroke:none;font-family:TeX Gyre Pagella;-inkscape-font-specification:TeX Gyre Pagella"
       x="324.86572"
       y="1007.5001"
       id="text6969"
       sodipodi:linespacing="125%"><tspan
         sodipodi:role="line"
         id="tspan6971"
         x="324.86572"
         y="1007.5001">BD1</tspan></text>
    <text
       xml:space="preserve"
       style="font-size:13px;font-style:normal;font-variant:normal;font-weight:normal;font-stretch:normal;line-height:125%;letter-spacing:0px;word-spacing:0px;fill:#000000;fill-opacity:1;stroke:none;font-family:TeX Gyre Pagella;-inkscape-font-specification:TeX Gyre Pagella"
       x="266.15729"
       y="905.03723"
       id="text6973"
       sodipodi:linespacing="125%"><tspan
         sodipodi:role="line"
         id="tspan6975"
         x="266.15729"
         y="905.03723">BD2</tspan></text>
    <text
       xml:space="preserve"
       style="font-size:13px;font-style:normal;font-variant:normal;font-weight:normal;font-stretch:normal;line-height:125%;letter-spacing:0px;word-spacing:0px;fill:#000000;fill-opacity:1;stroke:none;font-family:TeX Gyre Pagella;-inkscape-font-specification:TeX Gyre Pagella"
       x="324.31186"
       y="880.66772"
       id="text6977"
       sodipodi:linespacing="125%"><tspan
         sodipodi:role="line"
         id="tspan6979"
         x="324.31186"
         y="880.66772">Aperture</tspan></text>
    <text
       xml:space="preserve"
       style="font-size:13px;font-style:normal;font-variant:normal;font-weight:normal;font-stretch:normal;line-height:125%;letter-spacing:0px;word-spacing:0px;fill:#000000;fill-opacity:1;stroke:none;font-family:TeX Gyre Pagella;-inkscape-font-specification:TeX Gyre Pagella"
       x="348.6814"
       y="960.42255"
       id="text6981"
       sodipodi:linespacing="125%"><tspan
         sodipodi:role="line"
         id="tspan6983"
         x="348.6814"
         y="960.42255">Photodiode</tspan></text>
    <text
       xml:space="preserve"
       style="font-size:13px;font-style:normal;font-variant:normal;font-weight:normal;font-stretch:normal;line-height:125%;letter-spacing:0px;word-spacing:0px;fill:#000000;fill-opacity:1;stroke:none;font-family:TeX Gyre Pagella;-inkscape-font-specification:TeX Gyre Pagella"
       x="208.00272"
       y="944.91467"
       id="text6985"
       sodipodi:linespacing="125%"><tspan
         sodipodi:role="line"
         id="tspan6987"
         x="208.00272"
         y="944.91467">Attenuator</tspan></text>
    <text
       xml:space="preserve"
       style="font-size:13px;font-style:normal;font-variant:normal;font-weight:normal;font-stretch:normal;line-height:125%;letter-spacing:0px;word-spacing:0px;fill:#000000;fill-opacity:1;stroke:none;font-family:TeX Gyre Pagella;-inkscape-font-specification:TeX Gyre Pagella"
       x="299.38849"
       y="1024.6696"
       id="text6989"
       sodipodi:linespacing="125%"><tspan
         sodipodi:role="line"
         id="tspan6991"
         x="299.38849"
         y="1024.6696">Alignment</tspan><tspan
         sodipodi:role="line"
         x="299.38849"
         y="1040.9196"
         id="tspan6993">Laser</tspan></text>
    <text
       xml:space="preserve"
       style="font-size:13px;font-style:normal;font-variant:normal;font-weight:normal;font-stretch:normal;line-height:125%;letter-spacing:0px;word-spacing:0px;fill:#000000;fill-opacity:1;stroke:none;font-family:TeX Gyre Pagella;-inkscape-font-specification:TeX Gyre Pagella"
       x="252.20709"
       y="1010.8188"
       id="text6961-0"
       sodipodi:linespacing="125%"><tspan
         sodipodi:role="line"
         id="tspan6963-3"
         x="252.20709"
         y="1010.8188">M1</tspan></text>
    <text
       xml:space="preserve"
       style="font-size:13px;font-style:normal;font-variant:normal;font-weight:normal;font-stretch:normal;line-height:125%;letter-spacing:0px;word-spacing:0px;fill:#000000;fill-opacity:1;stroke:none;font-family:TeX Gyre Pagella;-inkscape-font-specification:TeX Gyre Pagella"
       x="60.244736"
       y="1004.2254"
       id="text7016"
       sodipodi:linespacing="125%"><tspan
         sodipodi:role="line"
         id="tspan7018"
         x="60.244736"
         y="1004.2254">UV Laser</tspan></text>
    <text
       xml:space="preserve"
       style="font-size:13px;font-style:normal;font-variant:normal;font-weight:normal;font-stretch:normal;line-height:125%;letter-spacing:0px;word-spacing:0px;fill:#000000;fill-opacity:1;stroke:none;font-family:TeX Gyre Pagella;-inkscape-font-specification:TeX Gyre Pagella"
       x="147.17125"
       y="855.45117"
       id="text7020"
       sodipodi:linespacing="125%"><tspan
         sodipodi:role="line"
         id="tspan7022"
         x="147.17125"
         y="855.45117">To Feedthrough</tspan></text>
  </g>
</svg>
