<?xml version="1.0" encoding="UTF-8" standalone="no"?>
<!-- Created with Inkscape (http://www.inkscape.org/) -->

<svg
   xmlns:dc="http://purl.org/dc/elements/1.1/"
   xmlns:cc="http://creativecommons.org/ns#"
   xmlns:rdf="http://www.w3.org/1999/02/22-rdf-syntax-ns#"
   xmlns:svg="http://www.w3.org/2000/svg"
   xmlns="http://www.w3.org/2000/svg"
   xmlns:sodipodi="http://sodipodi.sourceforge.net/DTD/sodipodi-0.dtd"
   xmlns:inkscape="http://www.inkscape.org/namespaces/inkscape"
   version="1.1"
   id="svg2"
   xml:space="preserve"
   width="172"
   height="186.66667"
   viewBox="0 0 172 186.66667"
   sodipodi:docname="aec_logo.svg"
   inkscape:version="0.92.3 (2405546, 2018-03-11)"><metadata
     id="metadata8"><rdf:RDF><cc:Work
         rdf:about=""><dc:format>image/svg+xml</dc:format><dc:type
           rdf:resource="http://purl.org/dc/dcmitype/StillImage" /><dc:title></dc:title></cc:Work></rdf:RDF></metadata><defs
     id="defs6" /><sodipodi:namedview
     pagecolor="#ffffff"
     bordercolor="#666666"
     borderopacity="1"
     objecttolerance="10"
     gridtolerance="10"
     guidetolerance="10"
     inkscape:pageopacity="0"
     inkscape:pageshadow="2"
     inkscape:window-width="1181"
     inkscape:window-height="850"
     id="namedview4"
     showgrid="false"
     inkscape:zoom="1.2642857"
     inkscape:cx="-82.870061"
     inkscape:cy="93.333336"
     inkscape:window-x="0"
     inkscape:window-y="25"
     inkscape:window-maximized="0"
     inkscape:current-layer="g10" /><g
     id="g10"
     inkscape:groupmode="layer"
     inkscape:label="aec_logo"
     transform="matrix(1.3333333,0,0,-1.3333333,0,186.66667)"><g
       id="g12"
       transform="scale(0.1)"><g
         id="g14"
         transform="scale(10)"><text
           transform="matrix(1,0,0,-1,0.582422,20.6332)"
           style="font-variant:normal;font-weight:bold;font-size:8px;font-family:'DejaVu Sans';-inkscape-font-specification:DejaVuSans-Bold;writing-mode:lr-tb;fill:#926817;fill-opacity:1;fill-rule:nonzero;stroke:none"
           id="text18"><tspan
             x="0 6.8798904 12.615766"
             y="0"
             sodipodi:role="line"
             id="tspan16">AEC</tspan></text>
<text
           transform="matrix(1,0,0,-1,0.582422,10.87343)"
           style="font-variant:normal;font-weight:normal;font-size:8px;font-family:'DejaVu Sans';-inkscape-font-specification:DejaVuSans;writing-mode:lr-tb;fill:#926817;fill-opacity:1;fill-rule:nonzero;stroke:none"
           id="text24"><tspan
             x="0 6.4161439 11.128003 16.880066 22.152082 27.399973 32.559849 35.807755 41.207893 44.263988 50.512051 55.463924 60.623802 65.951675 68.94371 75.191772 78.439674 84.295547 89.327721 95.703911 100.86378 106.19166"
             y="0"
             sodipodi:role="line"
             id="tspan20">ALBERT EINSTEIN CENTER</tspan><tspan
             x="0 4.8640623 11.528031 17.359907 20.351954 25.223829 31.703657 38.07164 44.951561 51.463402 59.175217 64.703094 71.126938 76.727051 82.950996 84.287079 90.950996 96.062889 102.791 108.079 113.42307 116.35924 122.10339"
             y="9.7597704"
             sodipodi:role="line"
             id="tspan22">FOR FUNDAMENTAL PHYSICS</tspan></text>
</g><path
         d="M 166.051,1019.47 C 139.41,986 107.77,959.98 64.4492,959.98 c -29.1797,0 -55.18748,9.879 -55.18748,44.65 0,8.63 3.74998,28.48 8.03908,48.32 l 31.6094,146.17 H 0 l 4.33984,15.51 H 61.3281 c 19.2227,0 37.8125,2.46 56.9529,2.46 L 80.5508,1056.62 c -5,-22.3 -9.3399,-43.36 -9.3399,-51.44 0,-16.102 14.3008,-19.809 26.6407,-19.809 10.5464,0 23.5584,8.09 32.2264,13.668 27.934,17.931 40.942,52.001 48.363,83.011 L 210,1214.63 h 64.449 l -41.48,-181.52 c -4.379,-18.6 -6.84,-32.86 -6.207,-37.188 0.617,-6.211 6.828,-9.922 12.379,-9.922 22.308,0 49.57,51.4 57.621,69.41 l 13.629,-7.46 c -16.09,-41.48 -50.161,-87.97 -97.891,-87.97 -37.191,0 -47.07,23.52 -46.449,59.49"
         style="fill:#221e1f;fill-opacity:1;fill-rule:nonzero;stroke:none"
         id="path26"
         inkscape:connector-curvature="0" /><path
         d="m 329.961,1227.44 22.109,163.4 h 20.629 l -9.027,-63.32 0.469,-0.43 c 8.75,8.75 15.898,11.84 25.859,11.84 22.301,0 37.5,-19.96 37.5,-48.6 0,-28.51 -15.66,-64.57 -69.301,-64.57 -10.148,0 -22.07,0.74 -28.238,1.68 m 31.129,80.43 -9.289,-65.47 h 11.168 c 28.011,0 43.871,19.65 43.871,48.36 0,19.46 -8.75,30.59 -22.969,30.59 -6.68,0 -21.41,-4.49 -22.781,-13.48"
         style="fill:#221e1f;fill-opacity:1;fill-rule:nonzero;stroke:none"
         id="path28"
         inkscape:connector-curvature="0" /><path
         d="M 1.48047,695.801 H 1287.2205 v 12.8086 H 1.48047 Z"
         style="fill:#221e1f;fill-opacity:1;fill-rule:nonzero;stroke:none"
         id="path30"
         inkscape:connector-curvature="0" /><path
         d="m 3.91016,597.359 7.41794,55.121 h 6.9922 l -3.0508,-21.371 0.1602,-0.187 c 2.9297,2.969 5.3516,4.019 8.6719,4.019 7.539,0 12.6601,-6.722 12.6601,-16.402 0,-9.609 -5.2812,-21.758 -23.3633,-21.758 -3.3984,0 -7.41793,0.27 -9.48824,0.578 M 14.3398,624.43 11.25,602.398 h 3.7891 c 9.3711,0 14.8007,6.602 14.8007,16.293 0,6.559 -2.9609,10.348 -7.8085,10.348 -2.2305,0 -7.1915,-1.519 -7.6915,-4.609"
         style="fill:#221e1f;fill-opacity:1;fill-rule:nonzero;stroke:none"
         id="path32"
         inkscape:connector-curvature="0" /><path
         d="M 5.89844,519.078 V 553.77 H 20.7813 v -32.192 c 0,-7.379 1.9882,-13.59 9.5703,-13.59 7.6172,0 9.6093,6.211 9.6093,13.59 v 32.192 h 14.8789 v -34.692 c 0,-15.269 -9.8789,-22.148 -24.4882,-22.148 -14.5703,0 -24.45316,6.879 -24.45316,22.148"
         style="fill:#eb1941;fill-opacity:1;fill-rule:nonzero;stroke:none"
         id="path34"
         inkscape:connector-curvature="0" /><path
         d="m 107.699,497.91 -19.5388,38.16 h -0.1485 l 0.4688,-38.16 H 74.8008 v 55.86 h 18.9883 l 18.8319,-37.969 h 0.188 l -0.231,37.969 h 13.594 v -55.86 h -18.473"
         style="fill:#eb1941;fill-opacity:1;fill-rule:nonzero;stroke:none"
         id="path36"
         inkscape:connector-curvature="0" /><path
         d="m 148.359,497.91 h 14.8398 v 55.8594 H 148.359 Z"
         style="fill:#eb1941;fill-opacity:1;fill-rule:nonzero;stroke:none"
         id="path38"
         inkscape:connector-curvature="0" /><path
         d="m 197.301,497.91 -18.711,55.86 h 15.859 l 12.391,-43.872 h 0.148 l 12.461,43.872 h 15.321 l -19.032,-55.86 h -18.437"
         style="fill:#eb1941;fill-opacity:1;fill-rule:nonzero;stroke:none"
         id="path40"
         inkscape:connector-curvature="0" /><path
         d="m 249.801,497.91 v 55.86 h 39.379 v -10.59 h -24.489 v -11.52 h 23.118 V 521.07 H 264.691 V 508.5 h 25.387 v -10.59 h -40.277"
         style="fill:#eb1941;fill-opacity:1;fill-rule:nonzero;stroke:none"
         id="path42"
         inkscape:connector-curvature="0" /><path
         d="m 340.16,497.91 -3.25,10.078 c -3,9.571 -4.961,12.032 -10.461,12.032 h -3.129 v -22.11 h -14.84 v 55.86 h 26.559 c 9.883,0 17.973,-4.532 17.973,-14.098 0,-7.422 -3.563,-12.422 -10.742,-14.102 v -0.16 c 4.8,-1.289 5.109,-5.512 7.929,-12.301 l 5.422,-15.199 H 340.16 m -16.84,32.621 h 3.91 c 4.801,0 10.891,0.188 10.891,6.481 0,5.238 -5.152,6.168 -10.891,6.168 h -3.91 v -12.649"
         style="fill:#eb1941;fill-opacity:1;fill-rule:nonzero;stroke:none"
         id="path44"
         inkscape:connector-curvature="0" /><path
         d="m 371.211,499.359 1.289,12.34 c 3.828,-2.148 9.18,-3.711 15.352,-3.711 4.726,0 9.179,0.942 9.179,5.473 0,10.391 -26.371,3.789 -26.371,24.141 0,13.398 13.09,17.109 24.301,17.109 5.348,0 10.629,-0.82 14.418,-2.07 l -0.938,-11.532 c -3.91,1.762 -8.211,2.539 -12.421,2.539 -3.75,0 -10,-0.269 -10,-5.187 0,-9.07 26.359,-2.973 26.359,-23.133 0,-14.449 -12.149,-18.398 -24.527,-18.398 -5.231,0 -11.723,0.789 -16.641,2.429"
         style="fill:#eb1941;fill-opacity:1;fill-rule:nonzero;stroke:none"
         id="path46"
         inkscape:connector-curvature="0" /><path
         d="m 431.328,497.91 h 14.8828 v 55.8594 H 431.328 Z"
         style="fill:#eb1941;fill-opacity:1;fill-rule:nonzero;stroke:none"
         id="path48"
         inkscape:connector-curvature="0" /><path
         d="m 473.871,497.91 v 44.77 h -13.793 v 11.09 h 42.383 v -11.09 h -13.75 v -44.77 h -14.84"
         style="fill:#eb1941;fill-opacity:1;fill-rule:nonzero;stroke:none"
         id="path50"
         inkscape:connector-curvature="0" /><path
         d="m 553.629,497.91 -4.141,11.91 H 528.52 l -4.418,-11.91 H 508.98 l 21.219,55.86 h 18.199 l 21.563,-55.86 h -16.332 m -21.68,22.461 h 13.992 l -6.601,21.879 h -0.199 l -7.192,-21.879 m 10.981,47.809 h 11.519 V 556.699 H 542.93 Z m -18.282,0 h 11.563 v -11.481 h -11.563 z"
         style="fill:#eb1941;fill-opacity:1;fill-rule:nonzero;stroke:none"
         id="path52"
         inkscape:connector-curvature="0" /><path
         d="m 590.43,497.91 v 44.77 h -13.75 v 11.09 h 42.422 v -11.09 h -13.75 V 497.91 H 590.43"
         style="fill:#eb1941;fill-opacity:1;fill-rule:nonzero;stroke:none"
         id="path54"
         inkscape:connector-curvature="0" /><path
         d="m 6.28906,397.91 v 55.86 H 31.9883 c 10.3906,0 18.1328,-4.61 18.1328,-14.18 0,-7.07 -3.6016,-10.981 -9.8516,-13.051 v -0.148 c 7.461,-1.532 11.2891,-5.512 11.2891,-12.313 0,-13.359 -11.7578,-16.168 -21.7188,-16.168 H 6.28906 m 14.88284,10.551 h 4.3789 c 5.4687,0 11.1289,0.82 11.1289,6.48 0,6.059 -5.8203,6.637 -10.9414,6.637 h -4.5664 v -13.117 m 0,23.199 h 4.1367 c 4.8906,0 9.9219,1.211 9.9219,5.899 0,5.121 -4.7617,5.621 -9.7188,5.621 h -4.3398 v -11.52"
         style="fill:#eb1941;fill-opacity:1;fill-rule:nonzero;stroke:none"
         id="path56"
         inkscape:connector-curvature="0" /><path
         d="m 68.3594,397.91 v 55.86 H 107.73 V 443.18 H 83.2383 V 431.66 H 106.328 V 421.07 H 83.2383 V 408.461 H 108.59 V 397.91 H 68.3594"
         style="fill:#eb1941;fill-opacity:1;fill-rule:nonzero;stroke:none"
         id="path58"
         inkscape:connector-curvature="0" /><path
         d="m 159.77,397.91 -3.211,10.078 c -3.079,9.614 -5,11.992 -10.508,11.992 h -3.121 v -22.07 h -14.84 v 55.86 h 26.519 c 9.922,0 18.012,-4.489 18.012,-14.098 0,-7.461 -3.519,-12.422 -10.711,-14.063 v -0.199 c 4.77,-1.25 5.078,-5.512 7.93,-12.34 l 5.43,-15.16 h -15.5 m -16.84,32.621 h 3.91 c 4.801,0 10.89,0.149 10.89,6.481 0,5.238 -5.191,6.168 -10.89,6.168 h -3.91 v -12.649"
         style="fill:#eb1941;fill-opacity:1;fill-rule:nonzero;stroke:none"
         id="path60"
         inkscape:connector-curvature="0" /><path
         d="m 224.691,397.91 -19.531,38.16 h -0.121 l 0.473,-38.16 H 191.84 v 55.86 h 18.941 l 18.867,-37.93 h 0.153 l -0.192,37.93 h 13.551 v -55.86 h -18.469"
         style="fill:#eb1941;fill-opacity:1;fill-rule:nonzero;stroke:none"
         id="path62"
         inkscape:connector-curvature="0" /></g></g></svg>