<?xml version="1.0" encoding="UTF-8" standalone="no"?>
<!-- Created with Inkscape (http://www.inkscape.org/) -->

<svg
   xmlns:dc="http://purl.org/dc/elements/1.1/"
   xmlns:cc="http://creativecommons.org/ns#"
   xmlns:rdf="http://www.w3.org/1999/02/22-rdf-syntax-ns#"
   xmlns:svg="http://www.w3.org/2000/svg"
   xmlns="http://www.w3.org/2000/svg"
   xmlns:xlink="http://www.w3.org/1999/xlink"
   xmlns:sodipodi="http://sodipodi.sourceforge.net/DTD/sodipodi-0.dtd"
   xmlns:inkscape="http://www.inkscape.org/namespaces/inkscape"
   width="9in"
   height="4.7839537in"
   viewBox="0 0 228.60001 121.51242"
   version="1.1"
   id="svg8"
   sodipodi:docname="efield_impacts.svg"
   inkscape:version="0.92.3 (2405546, 2018-03-11)">
  <defs
     id="defs2">
    <linearGradient
       inkscape:collect="always"
       id="linearGradient939">
      <stop
         style="stop-color:#1f77b4;stop-opacity:1;"
         offset="0"
         id="stop935" />
      <stop
         style="stop-color:#9467bd;stop-opacity:1"
         offset="1"
         id="stop937" />
    </linearGradient>
    <linearGradient
       inkscape:collect="always"
       id="linearGradient920-6">
      <stop
         style="stop-color:#1f77b4;stop-opacity:1;"
         offset="0"
         id="stop916" />
      <stop
         style="stop-color:#1f77b4;stop-opacity:0;"
         offset="1"
         id="stop918" />
    </linearGradient>
    <marker
       inkscape:isstock="true"
       style="overflow:visible"
       id="marker17831"
       refX="0"
       refY="0"
       orient="auto"
       inkscape:stockid="TriangleOutL">
      <path
         transform="scale(0.8)"
         style="fill:#000000;fill-opacity:1;fill-rule:evenodd;stroke:#000000;stroke-width:1.00000003pt;stroke-opacity:1"
         d="M 5.77,0 -2.88,5 V -5 Z"
         id="path17829"
         inkscape:connector-curvature="0" />
    </marker>
    <marker
       inkscape:isstock="true"
       style="overflow:visible"
       id="marker17791"
       refX="0"
       refY="0"
       orient="auto"
       inkscape:stockid="TriangleOutL">
      <path
         transform="scale(0.8)"
         style="fill:#000000;fill-opacity:1;fill-rule:evenodd;stroke:#000000;stroke-width:1.00000003pt;stroke-opacity:1"
         d="M 5.77,0 -2.88,5 V -5 Z"
         id="path17789"
         inkscape:connector-curvature="0" />
    </marker>
    <marker
       inkscape:stockid="TriangleOutL"
       orient="auto"
       refY="0"
       refX="0"
       id="marker13421"
       style="overflow:visible"
       inkscape:isstock="true"
       inkscape:collect="always">
      <path
         id="path13419"
         d="M 5.77,0 -2.88,5 V -5 Z"
         style="fill:#1f77b4;fill-opacity:1;fill-rule:evenodd;stroke:#1f77b4;stroke-width:1.00000003pt;stroke-opacity:1"
         transform="scale(0.8)"
         inkscape:connector-curvature="0" />
    </marker>
    <marker
       inkscape:isstock="true"
       style="overflow:visible"
       id="marker13362"
       refX="0"
       refY="0"
       orient="auto"
       inkscape:stockid="TriangleOutL"
       inkscape:collect="always">
      <path
         transform="scale(0.8)"
         style="fill:#2ca02c;fill-opacity:1;fill-rule:evenodd;stroke:#2ca02c;stroke-width:1.00000003pt;stroke-opacity:1"
         d="M 5.77,0 -2.88,5 V -5 Z"
         id="path13360"
         inkscape:connector-curvature="0" />
    </marker>
    <marker
       inkscape:stockid="TriangleOutL"
       orient="auto"
       refY="0"
       refX="0"
       id="TriangleOutL"
       style="overflow:visible"
       inkscape:isstock="true"
       inkscape:collect="always">
      <path
         id="path10952"
         d="M 5.77,0 -2.88,5 V -5 Z"
         style="fill:#9467bd;fill-opacity:1;fill-rule:evenodd;stroke:#9467bd;stroke-width:1.00000003pt;stroke-opacity:1"
         transform="scale(0.8)"
         inkscape:connector-curvature="0" />
    </marker>
    <marker
       inkscape:stockid="Arrow1Lend"
       orient="auto"
       refY="0"
       refX="0"
       id="Arrow1Lend"
       style="overflow:visible"
       inkscape:isstock="true">
      <path
         id="path10813"
         d="M 0,0 5,-5 -12.5,0 5,5 Z"
         style="fill:#000000;fill-opacity:1;fill-rule:evenodd;stroke:#000000;stroke-width:1.00000003pt;stroke-opacity:1"
         transform="matrix(-0.8,0,0,-0.8,-10,0)"
         inkscape:connector-curvature="0" />
    </marker>
    <symbol
       id="Process">
      <title
         id="title1120">Process</title>
      <desc
         id="desc1122">Any processing function.</desc>
      <rect
         x="3.96875"
         y="9.260417"
         width="31.75"
         height="21.166666"
         style="stroke-width:0.52916664"
         id="rect1124" />
    </symbol>
    <symbol
       id="MagneticTape">
      <title
         id="title1169">Magnetic Tape</title>
      <desc
         id="desc1171">Magnetic tape storage</desc>
      <circle
         cx="19.84375"
         cy="19.84375"
         r="10.583333"
         style="stroke-width:0.52916664"
         id="circle1173" />
      <path
         inkscape:connector-curvature="0"
         d="M 19.84375,30.427083 H 30.427083"
         style="stroke-width:0.52916664"
         id="path1175" />
    </symbol>
    <symbol
       id="Display">
      <title
         id="title1178">Display</title>
      <desc
         id="desc1180">Information display by online indicators, video devices, printers, etc.</desc>
      <path
         inkscape:connector-curvature="0"
         d="M 3.96875,19.84375 A 26.458333,26.458333 0 0 1 14.552083,9.2604167 H 31.75 a 15.875,15.875 0 0 1 0,21.1666663 H 14.552083 A 26.458333,26.458333 0 0 1 3.96875,19.84375 Z"
         style="stroke-width:0.52916664px"
         id="path1182" />
    </symbol>
    <marker
       inkscape:isstock="true"
       style="overflow:visible"
       id="marker17831-2"
       refX="0"
       refY="0"
       orient="auto"
       inkscape:stockid="TriangleOutL">
      <path
         inkscape:connector-curvature="0"
         transform="scale(0.8)"
         style="fill:#000000;fill-opacity:1;fill-rule:evenodd;stroke:#000000;stroke-width:1.00000003pt;stroke-opacity:1"
         d="M 5.77,0 -2.88,5 V -5 Z"
         id="path17829-8" />
    </marker>
    <marker
       inkscape:isstock="true"
       style="overflow:visible"
       id="marker17831-2-6"
       refX="0"
       refY="0"
       orient="auto"
       inkscape:stockid="TriangleOutL">
      <path
         inkscape:connector-curvature="0"
         transform="scale(0.8)"
         style="fill:#000000;fill-opacity:1;fill-rule:evenodd;stroke:#000000;stroke-width:1.00000003pt;stroke-opacity:1"
         d="M 5.77,0 -2.88,5 V -5 Z"
         id="path17829-8-0" />
    </marker>
    <marker
       inkscape:isstock="true"
       style="overflow:visible"
       id="marker17831-2-6-0"
       refX="0"
       refY="0"
       orient="auto"
       inkscape:stockid="TriangleOutL">
      <path
         inkscape:connector-curvature="0"
         transform="scale(0.8)"
         style="fill:#000000;fill-opacity:1;fill-rule:evenodd;stroke:#000000;stroke-width:1.00000003pt;stroke-opacity:1"
         d="M 5.77,0 -2.88,5 V -5 Z"
         id="path17829-8-0-1" />
    </marker>
    <marker
       inkscape:isstock="true"
       style="overflow:visible"
       id="marker17831-2-6-0-1"
       refX="0"
       refY="0"
       orient="auto"
       inkscape:stockid="TriangleOutL">
      <path
         inkscape:connector-curvature="0"
         transform="scale(0.8)"
         style="fill:#000000;fill-opacity:1;fill-rule:evenodd;stroke:#000000;stroke-width:1.00000003pt;stroke-opacity:1"
         d="M 5.77,0 -2.88,5 V -5 Z"
         id="path17829-8-0-1-3" />
    </marker>
    <marker
       inkscape:isstock="true"
       style="overflow:visible"
       id="marker17831-2-6-7"
       refX="0"
       refY="0"
       orient="auto"
       inkscape:stockid="TriangleOutL">
      <path
         inkscape:connector-curvature="0"
         transform="scale(0.8)"
         style="fill:#000000;fill-opacity:1;fill-rule:evenodd;stroke:#000000;stroke-width:1.00000003pt;stroke-opacity:1"
         d="M 5.77,0 -2.88,5 V -5 Z"
         id="path17829-8-0-2" />
    </marker>
    <marker
       inkscape:stockid="TriangleOutL"
       orient="auto"
       refY="0"
       refX="0"
       id="marker13421-0"
       style="overflow:visible"
       inkscape:isstock="true"
       inkscape:collect="always">
      <path
         inkscape:connector-curvature="0"
         id="path13419-5"
         d="M 5.77,0 -2.88,5 V -5 Z"
         style="fill:#ff7f0e;fill-opacity:1;fill-rule:evenodd;stroke:#ff7f0e;stroke-width:1.00000003pt;stroke-opacity:1"
         transform="scale(0.8)" />
    </marker>
    <marker
       inkscape:isstock="true"
       style="overflow:visible"
       id="marker17831-21"
       refX="0"
       refY="0"
       orient="auto"
       inkscape:stockid="TriangleOutL">
      <path
         inkscape:connector-curvature="0"
         transform="scale(0.8)"
         style="fill:#000000;fill-opacity:1;fill-rule:evenodd;stroke:#000000;stroke-width:1.00000003pt;stroke-opacity:1"
         d="M 5.77,0 -2.88,5 V -5 Z"
         id="path17829-9" />
    </marker>
    <marker
       inkscape:isstock="true"
       style="overflow:visible"
       id="marker17831-2-6-7-6"
       refX="0"
       refY="0"
       orient="auto"
       inkscape:stockid="TriangleOutL">
      <path
         inkscape:connector-curvature="0"
         transform="scale(0.8)"
         style="fill:#000000;fill-opacity:1;fill-rule:evenodd;stroke:#000000;stroke-width:1.00000003pt;stroke-opacity:1"
         d="M 5.77,0 -2.88,5 V -5 Z"
         id="path17829-8-0-2-8" />
    </marker>
    <marker
       inkscape:isstock="true"
       style="overflow:visible"
       id="marker17831-2-6-7-0"
       refX="0"
       refY="0"
       orient="auto"
       inkscape:stockid="TriangleOutL">
      <path
         inkscape:connector-curvature="0"
         transform="scale(0.8)"
         style="fill:#000000;fill-opacity:1;fill-rule:evenodd;stroke:#000000;stroke-width:1.00000003pt;stroke-opacity:1"
         d="M 5.77,0 -2.88,5 V -5 Z"
         id="path17829-8-0-2-6" />
    </marker>
    <marker
       inkscape:isstock="true"
       style="overflow:visible"
       id="marker17831-2-6-7-3"
       refX="0"
       refY="0"
       orient="auto"
       inkscape:stockid="TriangleOutL">
      <path
         inkscape:connector-curvature="0"
         transform="scale(0.8)"
         style="fill:#000000;fill-opacity:1;fill-rule:evenodd;stroke:#000000;stroke-width:1.00000003pt;stroke-opacity:1"
         d="M 5.77,0 -2.88,5 V -5 Z"
         id="path17829-8-0-2-3" />
    </marker>
    <linearGradient
       inkscape:collect="always"
       xlink:href="#linearGradient920-6"
       id="linearGradient922"
       x1="11.021749"
       y1="264.16937"
       x2="65.131035"
       y2="264.16937"
       gradientUnits="userSpaceOnUse" />
    <linearGradient
       inkscape:collect="always"
       xlink:href="#linearGradient939"
       id="linearGradient941"
       x1="111.45064"
       y1="181.11247"
       x2="91.220192"
       y2="181.11247"
       gradientUnits="userSpaceOnUse"
       gradientTransform="matrix(5.5714289,0,0,1,-370.11432,0)" />
    <linearGradient
       inkscape:collect="always"
       xlink:href="#linearGradient939"
       id="linearGradient943"
       gradientUnits="userSpaceOnUse"
       x1="11.021749"
       y1="264.16937"
       x2="65.131035"
       y2="264.16937"
       gradientTransform="matrix(1.6598862,0,0,1.6598862,-2.650327,-181.85782)" />
    <symbol
       id="Terminal">
      <title
         id="title1318">Terminal/Interrupt</title>
      <desc
         id="desc1320">A terminal point in a flowchart: start, stop, halt, etc.</desc>
      <path
         inkscape:connector-curvature="0"
         d="m 9.2604167,25.135417 a 5.291667,5.291667 0 0 1 0,-10.583334 H 30.427083 a 5.291667,5.291667 0 0 1 0,10.583334 z"
         style="stroke-width:0.52916664"
         id="path1322" />
    </symbol>
    <symbol
       id="Connector">
      <title
         id="title1360">Connector</title>
      <desc
         id="desc1362">Exit to or entry from another part of chart.</desc>
      <circle
         cx="19.84375"
         cy="19.84375"
         r="5.2916665"
         style="stroke-width:0.52916664"
         id="circle1364" />
    </symbol>
  </defs>
  <sodipodi:namedview
     id="base"
     pagecolor="#ffffff"
     bordercolor="#666666"
     borderopacity="1.0"
     inkscape:pageopacity="0.0"
     inkscape:pageshadow="2"
     inkscape:zoom="1.0000001"
     inkscape:cx="582.05716"
     inkscape:cy="102.31896"
     inkscape:document-units="mm"
     inkscape:current-layer="layer1"
     showgrid="true"
     units="in"
     objecttolerance="10000"
     inkscape:window-width="1920"
     inkscape:window-height="1151"
     inkscape:window-x="0"
     inkscape:window-y="25"
     inkscape:window-maximized="1"
     fit-margin-top="0"
     fit-margin-left="0"
     fit-margin-right="0"
     fit-margin-bottom="0">
    <inkscape:grid
       type="xygrid"
       id="grid817"
       dotted="false"
       empspacing="6"
       originx="-2.6852676"
       originy="-1.4441961" />
  </sodipodi:namedview>
  <metadata
     id="metadata5">
    <rdf:RDF>
      <cc:Work
         rdf:about="">
        <dc:format>image/svg+xml</dc:format>
        <dc:type
           rdf:resource="http://purl.org/dc/dcmitype/StillImage" />
        <dc:title></dc:title>
      </cc:Work>
    </rdf:RDF>
  </metadata>
  <g
     inkscape:label="Layer 1"
     inkscape:groupmode="layer"
     id="layer1"
     transform="translate(-2.6852675,-174.04336)">
    <g
       id="g5106"
       transform="matrix(1.6598862,0,0,1.6598862,-3.5286783,-195.47234)">
      <text
         id="text10785"
         y="249.06277"
         x="132.52748"
         style="font-style:normal;font-variant:normal;font-weight:normal;font-stretch:normal;font-size:3.88055563px;line-height:1.25;font-family:'TeX Gyre Pagella';-inkscape-font-specification:'TeX Gyre Pagella';text-align:center;letter-spacing:0px;word-spacing:0px;text-anchor:middle;fill:#000000;fill-opacity:1;stroke:none;stroke-width:0.4490861;stroke-miterlimit:4;stroke-dasharray:none"
         xml:space="preserve"><tspan
           style="text-align:center;text-anchor:middle;stroke-width:0.4490861;stroke-miterlimit:4;stroke-dasharray:none"
           y="249.06277"
           x="132.52748"
           id="tspan10783"
           sodipodi:role="line">Wire</tspan><tspan
           id="tspan10787"
           style="text-align:center;text-anchor:middle;stroke-width:0.4490861;stroke-miterlimit:4;stroke-dasharray:none"
           y="253.91347"
           x="132.52748"
           sodipodi:role="line">Readout</tspan></text>
      <rect
         ry="1.9127845"
         rx="1.9127828"
         y="244.61247"
         x="123.825"
         height="11.11251"
         width="17.4625"
         id="rect5100"
         style="opacity:1;vector-effect:none;fill:none;fill-opacity:1;stroke:#000000;stroke-width:0.35277778;stroke-linecap:square;stroke-linejoin:miter;stroke-miterlimit:10.39999962;stroke-dasharray:none;stroke-dashoffset:0;stroke-opacity:1;paint-order:stroke fill markers" />
      <rect
         ry="1.9127845"
         rx="1.9127829"
         y="282.97705"
         x="82.020828"
         height="11.11251"
         width="17.4625"
         id="rect5100-2"
         style="opacity:1;vector-effect:none;fill:none;fill-opacity:1;stroke:#000000;stroke-width:0.35277778;stroke-linecap:square;stroke-linejoin:miter;stroke-miterlimit:10.39999962;stroke-dasharray:none;stroke-dashoffset:0;stroke-opacity:1;paint-order:stroke fill markers" />
    </g>
    <path
       style="opacity:0.5;fill:none;stroke:#2ca02c;stroke-width:0.58557093;stroke-linecap:butt;stroke-linejoin:miter;stroke-miterlimit:4;stroke-dasharray:none;stroke-opacity:1;marker-end:url(#marker13362)"
       d="m 131.73821,237.34647 c 20.0468,-9.8648 41.15685,-22.10246 66.75508,-18.44556"
       id="path10779"
       inkscape:connector-curvature="0"
       sodipodi:nodetypes="cc" />
    <path
       style="opacity:0.71300001;fill:none;stroke:url(#linearGradient943);stroke-width:0.58557093;stroke-linecap:butt;stroke-linejoin:miter;stroke-miterlimit:4;stroke-dasharray:none;stroke-opacity:1;marker-end:url(#TriangleOutL)"
       d="m 15.795157,239.98154 c 39.52604,23.71563 64.12002,15.81034 82.565505,28.98568"
       id="path10781"
       inkscape:connector-curvature="0"
       sodipodi:nodetypes="cc" />
    <path
       sodipodi:nodetypes="cc"
       inkscape:connector-curvature="0"
       id="path13417"
       d="m 15.795157,239.98154 c 42.161109,26.3507 73.78194,15.81042 86.957283,7.90521"
       style="opacity:0.5;fill:none;stroke:#1f77b4;stroke-width:0.58557093;stroke-linecap:butt;stroke-linejoin:miter;stroke-miterlimit:4;stroke-dasharray:none;stroke-opacity:1;marker-end:url(#marker13421)" />
    <use
       id="use8652"
       transform="matrix(0.99593169,0,0,0.8714403,77.719285,195.02067)"
       style="opacity:0.56000001;fill:#7f7f7f;stroke:#000000;stroke-width:1.00003707;stroke-miterlimit:4;stroke-dasharray:none"
       xlink:href="#Process"
       x="0"
       y="0"
       width="100%"
       height="100%" />
    <text
       xml:space="preserve"
       style="font-style:normal;font-variant:normal;font-weight:normal;font-stretch:normal;font-size:6.44128036px;line-height:1.25;font-family:'TeX Gyre Pagella';-inkscape-font-specification:'TeX Gyre Pagella';letter-spacing:0px;word-spacing:0px;fill:#000000;fill-opacity:1;stroke:none;stroke-width:0.4391782"
       x="97.509239"
       y="210.56104"
       id="text8670"><tspan
         sodipodi:role="line"
         id="tspan8668"
         x="97.509239"
         y="210.56104"
         style="text-align:center;text-anchor:middle;stroke-width:0.4391782">Electric</tspan><tspan
         id="tspan26388"
         sodipodi:role="line"
         x="97.509239"
         y="218.61264"
         style="text-align:center;text-anchor:middle;stroke-width:0.4391782">Field</tspan></text>
    <g
       transform="matrix(0.58557094,0,0,0.58557094,52.791532,247.45928)"
       id="g31726">
      <path
         inkscape:connector-curvature="0"
         id="path31728"
         style="fill:none;stroke:#9467bd;stroke-width:0.80000001;stroke-linecap:round;stroke-linejoin:round;stroke-miterlimit:4;stroke-dasharray:none;stroke-opacity:1"
         d="m 106.309,65.367 c 0.742,-0.289 1.472,-0.57 1.894,-0.613 0.426,-0.039 0.531,0.172 0.336,0.617 -0.195,0.445 -0.672,1.117 -1.125,1.77 -0.457,0.648 -0.859,1.261 -0.937,1.617 -0.079,0.355 0.175,0.449 0.707,0.324 0.527,-0.125 1.32,-0.457 2.05,-0.734 0.727,-0.282 1.368,-0.493 1.672,-0.438 0.301,0.055 0.262,0.379 -0.031,0.902 -0.293,0.524 -0.82,1.235 -1.246,1.864 -0.426,0.629 -0.727,1.156 -0.68,1.414 0.043,0.258 0.442,0.242 1.063,0.047 0.617,-0.196 1.441,-0.551 2.129,-0.801 0.687,-0.246 1.214,-0.367 1.39,-0.215 0.176,0.156 -0.004,0.59 -0.375,1.176 -0.371,0.586 -0.914,1.308 -1.285,1.894 -0.371,0.586 -0.551,1.02 -0.375,1.176 0.176,0.153 0.703,0.031 1.391,-0.215 0.687,-0.25 1.508,-0.605 2.129,-0.8 0.621,-0.196 1.015,-0.211 1.062,0.043 0.047,0.257 -0.254,0.789 -0.68,1.417 -0.425,0.629 -0.953,1.336 -1.246,1.864 -0.293,0.523 -0.332,0.847 -0.031,0.902 0.305,0.055 0.945,-0.156 1.672,-0.437 0.73,-0.282 1.519,-0.61 2.051,-0.735 0.531,-0.125 0.785,-0.031 0.707,0.324 -0.082,0.356 -0.485,0.965 -0.938,1.618 -0.453,0.652 -0.933,1.32 -1.125,1.769 -0.195,0.445 -0.09,0.656 0.332,0.613" />
    </g>
    <g
       transform="matrix(0.46140272,-0.36055632,0.36055632,0.46140272,48.578181,290.31253)"
       id="g31726-1">
      <path
         inkscape:connector-curvature="0"
         id="path31728-6"
         style="fill:none;stroke:#9467bd;stroke-width:0.80000001;stroke-linecap:round;stroke-linejoin:round;stroke-miterlimit:4;stroke-dasharray:none;stroke-opacity:1"
         d="m 106.309,65.367 c 0.742,-0.289 1.472,-0.57 1.894,-0.613 0.426,-0.039 0.531,0.172 0.336,0.617 -0.195,0.445 -0.672,1.117 -1.125,1.77 -0.457,0.648 -0.859,1.261 -0.937,1.617 -0.079,0.355 0.175,0.449 0.707,0.324 0.527,-0.125 1.32,-0.457 2.05,-0.734 0.727,-0.282 1.368,-0.493 1.672,-0.438 0.301,0.055 0.262,0.379 -0.031,0.902 -0.293,0.524 -0.82,1.235 -1.246,1.864 -0.426,0.629 -0.727,1.156 -0.68,1.414 0.043,0.258 0.442,0.242 1.063,0.047 0.617,-0.196 1.441,-0.551 2.129,-0.801 0.687,-0.246 1.214,-0.367 1.39,-0.215 0.176,0.156 -0.004,0.59 -0.375,1.176 -0.371,0.586 -0.914,1.308 -1.285,1.894 -0.371,0.586 -0.551,1.02 -0.375,1.176 0.176,0.153 0.703,0.031 1.391,-0.215 0.687,-0.25 1.508,-0.605 2.129,-0.8 0.621,-0.196 1.015,-0.211 1.062,0.043 0.047,0.257 -0.254,0.789 -0.68,1.417 -0.425,0.629 -0.953,1.336 -1.246,1.864 -0.293,0.523 -0.332,0.847 -0.031,0.902 0.305,0.055 0.945,-0.156 1.672,-0.437 0.73,-0.282 1.519,-0.61 2.051,-0.735 0.531,-0.125 0.785,-0.031 0.707,0.324 -0.082,0.356 -0.485,0.965 -0.938,1.618 -0.453,0.652 -0.933,1.32 -1.125,1.769 -0.195,0.445 -0.09,0.656 0.332,0.613" />
    </g>
    <g
       transform="matrix(0.14482391,-0.56737938,0.56737938,0.14482391,65.81289,326.04717)"
       id="g31726-2">
      <path
         inkscape:connector-curvature="0"
         id="path31728-1"
         style="fill:none;stroke:#9467bd;stroke-width:0.80000001;stroke-linecap:round;stroke-linejoin:round;stroke-miterlimit:4;stroke-dasharray:none;stroke-opacity:1"
         d="m 106.309,65.367 c 0.742,-0.289 1.472,-0.57 1.894,-0.613 0.426,-0.039 0.531,0.172 0.336,0.617 -0.195,0.445 -0.672,1.117 -1.125,1.77 -0.457,0.648 -0.859,1.261 -0.937,1.617 -0.079,0.355 0.175,0.449 0.707,0.324 0.527,-0.125 1.32,-0.457 2.05,-0.734 0.727,-0.282 1.368,-0.493 1.672,-0.438 0.301,0.055 0.262,0.379 -0.031,0.902 -0.293,0.524 -0.82,1.235 -1.246,1.864 -0.426,0.629 -0.727,1.156 -0.68,1.414 0.043,0.258 0.442,0.242 1.063,0.047 0.617,-0.196 1.441,-0.551 2.129,-0.801 0.687,-0.246 1.214,-0.367 1.39,-0.215 0.176,0.156 -0.004,0.59 -0.375,1.176 -0.371,0.586 -0.914,1.308 -1.285,1.894 -0.371,0.586 -0.551,1.02 -0.375,1.176 0.176,0.153 0.703,0.031 1.391,-0.215 0.687,-0.25 1.508,-0.605 2.129,-0.8 0.621,-0.196 1.015,-0.211 1.062,0.043 0.047,0.257 -0.254,0.789 -0.68,1.417 -0.425,0.629 -0.953,1.336 -1.246,1.864 -0.293,0.523 -0.332,0.847 -0.031,0.902 0.305,0.055 0.945,-0.156 1.672,-0.437 0.73,-0.282 1.519,-0.61 2.051,-0.735 0.531,-0.125 0.785,-0.031 0.707,0.324 -0.082,0.356 -0.485,0.965 -0.938,1.618 -0.453,0.652 -0.933,1.32 -1.125,1.769 -0.195,0.445 -0.09,0.656 0.332,0.613" />
    </g>
    <text
       id="text35389"
       y="207.82347"
       x="37.844635"
       style="font-style:normal;font-variant:normal;font-weight:normal;font-stretch:normal;font-size:6.44128036px;line-height:1.25;font-family:'TeX Gyre Pagella';-inkscape-font-specification:'TeX Gyre Pagella';letter-spacing:0px;word-spacing:0px;fill:#000000;fill-opacity:1;stroke:none;stroke-width:0.4391782"
       xml:space="preserve"><tspan
         id="tspan35391"
         style="stroke-width:0.4391782"
         y="207.82347"
         x="37.844635"
         sodipodi:role="line">Ions</tspan></text>
    <text
       xml:space="preserve"
       style="font-style:normal;font-variant:normal;font-weight:normal;font-stretch:normal;font-size:6.44128036px;line-height:1.25;font-family:'TeX Gyre Pagella';-inkscape-font-specification:'TeX Gyre Pagella';letter-spacing:0px;word-spacing:0px;fill:#000000;fill-opacity:1;stroke:none;stroke-width:0.4391782"
       x="98.84655"
       y="281.7739"
       id="text10711"><tspan
         sodipodi:role="line"
         id="tspan10709"
         x="98.84655"
         y="281.7739"
         style="stroke-width:0.4391782">Photons </tspan></text>
    <text
       xml:space="preserve"
       style="font-style:normal;font-variant:normal;font-weight:normal;font-stretch:normal;font-size:6.44128036px;line-height:1.25;font-family:'TeX Gyre Pagella';-inkscape-font-specification:'TeX Gyre Pagella';text-align:center;letter-spacing:0px;word-spacing:0px;text-anchor:middle;fill:#000000;fill-opacity:1;stroke:none;stroke-width:0.4391782"
       x="119.32123"
       y="242.17461"
       id="text10715"><tspan
         sodipodi:role="line"
         id="tspan10713"
         x="119.32123"
         y="242.17461"
         style="text-align:center;text-anchor:middle;stroke-width:0.4391782">Electron</tspan><tspan
         sodipodi:role="line"
         x="119.32123"
         y="250.22621"
         style="text-align:center;text-anchor:middle;stroke-width:0.4391782"
         id="tspan10777">Cloud</tspan></text>
    <text
       xml:space="preserve"
       style="font-style:normal;font-variant:normal;font-weight:normal;font-stretch:normal;font-size:6.44128036px;line-height:1.25;font-family:'TeX Gyre Pagella';-inkscape-font-specification:'TeX Gyre Pagella';text-align:center;letter-spacing:0px;word-spacing:0px;text-anchor:middle;fill:#000000;fill-opacity:1;stroke:none;stroke-width:0.4391782"
       x="51.431496"
       y="257.52252"
       id="text10759"><tspan
         sodipodi:role="line"
         x="51.431496"
         y="257.52252"
         style="text-align:center;text-anchor:middle;stroke-width:0.4391782"
         id="tspan10775"> Recombination</tspan></text>
    <text
       xml:space="preserve"
       style="font-style:normal;font-variant:normal;font-weight:normal;font-stretch:normal;font-size:6.44128036px;line-height:1.25;font-family:'TeX Gyre Pagella';-inkscape-font-specification:'TeX Gyre Pagella';letter-spacing:0px;word-spacing:0px;fill:#000000;fill-opacity:1;stroke:none;stroke-width:0.4391782"
       x="104.29176"
       y="178.61023"
       id="text10763"><tspan
         sodipodi:role="line"
         id="tspan10761"
         x="104.29176"
         y="178.61023"
         style="stroke-width:0.4391782">Geometry</tspan></text>
    <text
       xml:space="preserve"
       style="font-style:normal;font-variant:normal;font-weight:normal;font-stretch:normal;font-size:6.44128036px;line-height:1.25;font-family:'TeX Gyre Pagella';-inkscape-font-specification:'TeX Gyre Pagella';letter-spacing:0px;word-spacing:0px;fill:#000000;fill-opacity:1;stroke:none;stroke-width:0.4391782"
       x="53.891747"
       y="178.71973"
       id="text10767"><tspan
         sodipodi:role="line"
         id="tspan10765"
         x="53.891747"
         y="178.71973"
         style="stroke-width:0.4391782">High Voltage</tspan></text>
    <text
       xml:space="preserve"
       style="font-style:normal;font-variant:normal;font-weight:normal;font-stretch:normal;font-size:6.44128036px;line-height:1.25;font-family:'TeX Gyre Pagella';-inkscape-font-specification:'TeX Gyre Pagella';text-align:center;letter-spacing:0px;word-spacing:0px;text-anchor:middle;fill:#000000;fill-opacity:1;stroke:none;stroke-width:0.4391782"
       x="17.049021"
       y="229.83708"
       id="text10771"><tspan
         sodipodi:role="line"
         id="tspan10769"
         x="17.049021"
         y="229.83708"
         style="text-align:center;text-anchor:middle;stroke-width:0.4391782">Ionization</tspan><tspan
         sodipodi:role="line"
         x="17.049021"
         y="237.88869"
         style="text-align:center;text-anchor:middle;stroke-width:0.4391782"
         id="tspan961"><tspan
   style="fill:#1f77b4;stroke-width:0.4391782"
   id="tspan969">e</tspan><tspan
   style="font-size:4.18683195px;baseline-shift:super;fill:#1f77b4;stroke-width:0.4391782"
   id="tspan963">-</tspan>/<tspan
   style="fill:#ff7f0e;stroke-width:0.4391782"
   id="tspan967">Ar</tspan><tspan
   style="font-size:4.18683195px;baseline-shift:super;fill:#ff7f0e;stroke-width:0.4391782"
   id="tspan965">+</tspan></tspan><tspan
         sodipodi:role="line"
         x="17.049021"
         y="245.94028"
         style="text-align:center;text-anchor:middle;stroke-width:0.4391782"
         id="tspan10773" /></text>
    <text
       xml:space="preserve"
       style="font-style:normal;font-variant:normal;font-weight:normal;font-stretch:normal;font-size:6.44128036px;line-height:1.25;font-family:'TeX Gyre Pagella';-inkscape-font-specification:'TeX Gyre Pagella';text-align:center;letter-spacing:0px;word-spacing:0px;text-anchor:middle;fill:#000000;fill-opacity:1;stroke:none;stroke-width:0.4391782"
       x="147.06169"
       y="281.7081"
       id="text10785-5"><tspan
         sodipodi:role="line"
         id="tspan10783-6"
         x="147.06169"
         y="281.7081"
         style="text-align:center;text-anchor:middle;stroke-width:0.4391782">Light</tspan><tspan
         sodipodi:role="line"
         x="147.06169"
         y="289.7597"
         style="text-align:center;text-anchor:middle;stroke-width:0.4391782"
         id="tspan10787-7">Readout</tspan></text>
    <g
       id="g13954"
       transform="matrix(1.6598862,0,0,1.6598862,-21.3154,-209.74563)">
      <g
         transform="translate(12.520979,14.899503)"
         id="g13741">
        <text
           xml:space="preserve"
           style="font-style:normal;font-variant:normal;font-weight:normal;font-stretch:normal;font-size:3.88055563px;line-height:1.25;font-family:'TeX Gyre Pagella';-inkscape-font-specification:'TeX Gyre Pagella';letter-spacing:0px;word-spacing:0px;fill:#000000;fill-opacity:1;stroke:none;stroke-width:0.26458332"
           x="93.335304"
           y="242.60019"
           id="text10703"><tspan
             sodipodi:role="line"
             id="tspan10701"
             x="93.335304"
             y="242.60019"
             style="stroke-width:0.26458332">Diffusion</tspan></text>
        <text
           xml:space="preserve"
           style="font-style:normal;font-variant:normal;font-weight:normal;font-stretch:normal;font-size:3.88055563px;line-height:1.25;font-family:'TeX Gyre Pagella';-inkscape-font-specification:'TeX Gyre Pagella';text-align:center;letter-spacing:0px;word-spacing:0px;text-anchor:middle;fill:#000000;fill-opacity:1;stroke:none;stroke-width:0.26458332"
           x="99.331322"
           y="248.54262"
           id="text10707"><tspan
             sodipodi:role="line"
             id="tspan10705"
             x="99.331322"
             y="248.54262"
             style="text-align:center;text-anchor:middle;stroke-width:0.26458332">Drift Direction</tspan><tspan
             sodipodi:role="line"
             x="99.331322"
             y="253.39331"
             style="text-align:center;text-anchor:middle;stroke-width:0.26458332"
             id="tspan24771">&amp; Speed</tspan></text>
      </g>
    </g>
    <path
       style="fill:none;stroke:#000000;stroke-width:0.4391782px;stroke-linecap:butt;stroke-linejoin:miter;stroke-opacity:1;marker-end:url(#marker17831)"
       d="m 76.401751,182.01002 c 0,13.17535 15.810415,2.63507 15.810414,18.44548"
       id="path17766"
       inkscape:connector-curvature="0"
       sodipodi:nodetypes="cc" />
    <path
       style="fill:none;stroke:#000000;stroke-width:0.4391782px;stroke-linecap:butt;stroke-linejoin:miter;stroke-opacity:1;marker-end:url(#marker17791)"
       d="m 118.56286,182.01002 c 0,13.17535 -15.81042,2.63507 -15.81041,18.44548"
       id="path17766-6"
       inkscape:connector-curvature="0"
       sodipodi:nodetypes="cc" />
    <path
       style="fill:none;stroke:#000000;stroke-width:0.4391782px;stroke-linecap:butt;stroke-linejoin:miter;stroke-opacity:1;marker-end:url(#marker17831-2)"
       d="m 92.212166,221.53606 c 0,13.17534 -31.620831,7.90521 -36.890969,23.71562"
       id="path17766-9"
       inkscape:connector-curvature="0"
       sodipodi:nodetypes="cc" />
    <path
       style="fill:none;stroke:#000000;stroke-width:0.4391782px;stroke-linecap:butt;stroke-linejoin:miter;stroke-opacity:1;marker-end:url(#marker17831-2-6)"
       d="m 113.29272,208.36071 c 18.44549,0 19.32384,7.02685 37.76933,7.02685"
       id="path17766-9-7"
       inkscape:connector-curvature="0"
       sodipodi:nodetypes="cc" />
    <path
       style="fill:none;stroke:#000000;stroke-width:0.4391782px;stroke-linecap:butt;stroke-linejoin:miter;stroke-opacity:1;marker-end:url(#marker17831-2-6-7)"
       d="m 113.29272,216.26592 c 18.44549,0 10.54028,15.81042 28.98576,13.17535"
       id="path17766-9-7-6"
       inkscape:connector-curvature="0"
       sodipodi:nodetypes="cc" />
    <path
       sodipodi:nodetypes="cc"
       inkscape:connector-curvature="0"
       id="path13417-3"
       d="m 15.795159,239.98154 c 63.241661,36.89097 44.796176,-7.9052 34.255899,-26.35069"
       style="opacity:0.5;fill:none;stroke:#ff7f0e;stroke-width:0.58557093;stroke-linecap:butt;stroke-linejoin:miter;stroke-miterlimit:4;stroke-dasharray:none;stroke-opacity:1;marker-end:url(#marker13421-0)" />
    <path
       style="fill:none;stroke:#000000;stroke-width:0.4391782px;stroke-linecap:butt;stroke-linejoin:miter;stroke-opacity:1;marker-end:url(#marker17831-2-6-7-3)"
       d="m 50.051058,205.72564 c 18.445485,0 10.540277,7.90521 28.985762,7.90521"
       id="path17766-9-7-6-6"
       inkscape:connector-curvature="0"
       sodipodi:nodetypes="cc" />
    <rect
       style="opacity:1;vector-effect:none;fill:none;fill-opacity:1;stroke:none;stroke-width:0.79374999;stroke-linecap:butt;stroke-linejoin:miter;stroke-miterlimit:10;stroke-dasharray:none;stroke-dashoffset:0;stroke-opacity:1;paint-order:stroke fill markers"
       id="rect929"
       width="44.450001"
       height="25.4"
       x="119.0625"
       y="179.52498"
       ry="0.47246909"
       rx="0.47246909" />
    <ellipse
       style="opacity:0.71300001;vector-effect:none;fill:none;fill-opacity:1;stroke:#000000;stroke-width:0.48048422;stroke-linecap:butt;stroke-linejoin:miter;stroke-miterlimit:10;stroke-dasharray:none;stroke-dashoffset:0;stroke-opacity:1;paint-order:stroke fill markers"
       id="path5839"
       cx="118.8108"
       cy="243.59732"
       rx="13.55355"
       ry="10.5342" />
    <ellipse
       style="opacity:0.71300001;vector-effect:none;fill:none;fill-opacity:1;stroke:#000000;stroke-width:0.48048422;stroke-linecap:butt;stroke-linejoin:miter;stroke-miterlimit:10;stroke-dasharray:none;stroke-dashoffset:0;stroke-opacity:1;paint-order:stroke fill markers"
       id="path5839-8"
       cx="110.24682"
       cy="279.82953"
       rx="13.55355"
       ry="10.5342" />
  </g>
</svg>
